<svg xmlns="http://www.w3.org/2000/svg" xmlns:xlink="http://www.w3.org/1999/xlink" width="3840" height="3840" viewBox="0 0 3840 3840">
  <defs>
    <clipPath id="clip-product-img-alt">
      <rect width="3840" height="3840"/>
    </clipPath>
  </defs>
  <g id="product-img-alt" clip-path="url(#clip-product-img-alt)">
    <g id="Path_23" data-name="Path 23" transform="translate(1320 1320)" fill="none">
      <path d="M0,0H1200V1200H0Z" stroke="none"/>
      <path d="M 12 12 L 12 1188 L 1188 1188 L 1188 12 L 12 12 M 0 0 L 1200 0 L 1200 1200 L 0 1200 L 0 0 Z" stroke="none" fill="#cecece"/>
    </g>
    <rect id="Rectangle_3" data-name="Rectangle 3" width="964" height="964" transform="translate(1438 1438)" fill="none"/>
    <path id="Subtraction_3" data-name="Subtraction 3" d="M410.08,388.132,0,387.865l46.884-121.9,316.38.208,46.816,121.96ZM359.008,255.087v0l-307.86-.2,46.884-121.9,214.158.139,46.818,121.963ZM307.937,122.038v0L102.293,121.9,149.178,0l111.94.073,46.818,121.962Z" transform="translate(1939.003 1786.396)" fill="#cecece"/>
    <path id="Path_18" data-name="Path 18" d="M395.581,266.215h0Z" transform="translate(1487.599 1965.685)" fill="#5f0052"/>
    <path id="Path_2" data-name="Path 2" d="M237.524,0H368.163L130.638,629.563H0Z" transform="translate(1468.599 1605.224)" fill="#cecece"/>
    <path id="Path_3" data-name="Path 3" d="M237.524,0H368.163L130.638,629.563H0Z" transform="translate(1759.976 1605.224)" fill="#cecece"/>
    <path id="Path_5" data-name="Path 5" d="M237.524,0H368.163L130.638,617.563H0Z" transform="translate(2190.954 1698.02) rotate(69)" fill="none"/>
    <path id="Path_6" data-name="Path 6" d="M237.524,0H368.163L130.638,617.563H0Z" transform="translate(2138.603 1562.408) rotate(69)" fill="none"/>
    <path id="Path_4" data-name="Path 4" d="M237.524,0H368.163L130.638,617.563H0Z" transform="translate(2246.838 1835.925) rotate(69)" fill="none"/>
    <path id="Path_1" data-name="Path 1" d="M237.524,0H368.163L130.638,629.563H0Z" transform="translate(1615.375 1605.224)" fill="none"/>
    <path id="Path_2-2" data-name="Path 2" d="M237.524,0H368.163L130.638,629.563H0Z" transform="translate(1468.599 1605.224)" fill="none"/>
    <path id="Path_3-2" data-name="Path 3" d="M237.524,0H368.163L130.638,629.563H0Z" transform="translate(1759.976 1605.224)" fill="none"/>
    <path id="Path_11" data-name="Path 11" d="M237.524,0H368.163L130.638,629.563H0Z" transform="translate(1615.375 1605.224)" fill="#cecece"/>
  </g>
</svg>
